…
### Задание 8

    ##     query                 N          
    ##  Length:397         Min.   :  1.000  
    ##  Class :character   1st Qu.:  1.000  
    ##  Mode  :character   Median :  1.000  
    ##                     Mean   :  3.108  
    ##                     3rd Qu.:  2.000  
    ##                     Max.   :104.000

### Задание 9

    ## # A tibble: 428,292 × 3
    ## # Groups:   log.4$query [5,176]
    ##    ip_host        query                                                  log.4…¹
    ##    <chr>          <chr>                                                  <chr>  
    ##  1 192.168.202.76 "HPE8AA67"                                             "HPE8A…
    ##  2 192.168.202.76 "HPE8AA67"                                             "HPE8A…
    ##  3 192.168.202.76 "HPE8AA67"                                             "HPE8A…
    ##  4 192.168.202.76 "WPAD"                                                 "WPAD" 
    ##  5 192.168.202.76 "WPAD"                                                 "WPAD" 
    ##  6 192.168.202.76 "WPAD"                                                 "WPAD" 
    ##  7 192.168.202.89 "EWREP1"                                               "EWREP…
    ##  8 192.168.202.89 "EWREP1"                                               "EWREP…
    ##  9 192.168.202.89 "EWREP1"                                               "EWREP…
    ## 10 192.168.202.89 "*\\x00\\x00\\x00\\x00\\x00\\x00\\x00\\x00\\x00\\x00\… "*\\x0…
    ## # … with 428,282 more rows, and abbreviated variable name ¹​`log.4$query`
…
